{
    "url": "https://www.googleapis.com/youtube/v3/search?order=date&part=snippet&channelId=UCEeEQxm6qc_qaTE7qTV5aLQ&maxResults=20&key=AIzaSyB2v-_O1IgUdRjQjQd_b2l6Jx_NaYvlqoI&page=2&pageToken=CBQQAA",
    "kind": "youtube#searchListResponse",
    "etag": "\"XI7nbFXulYBIpL0ayR_gDh3eu1k/DtyMelKL1uCeUnB-AD2ddanU8H8\"",
    "nextPageToken": "CCgQAA",
    "prevPageToken": "CBQQAQ",
    "regionCode": "PK",
    "pageInfo": {
        "totalResults": 15860,
        "resultsPerPage": 20
    },
    "items": [{
            "kind": "youtube#searchResult",
            "etag": "\"XI7nbFXulYBIpL0ayR_gDh3eu1k/ac-tcYpNOmrOshthmlkzPpvNVhs\"",
            "id": {
                "kind": "youtube#video",
                "videoId": "nMEMBdQu--4"
            },
            "snippet": {
                "publishedAt": "2018-10-29T17:24:07.000Z",
                "channelId": "UCEeEQxm6qc_qaTE7qTV5aLQ",
                "title": "Aatish Episode #12 Promo HUM TV Drama",
                "description": "Aatish Episode #12 Promo HD Official video - 29 October 2018 at HUM TV official YouTube channel. Subscribe to stay updated with new uploads.",
                "thumbnails": {
                    "default": {
                        "url": "https://i.ytimg.com/vi/nMEMBdQu--4/default.jpg",
                        "width": 120,
                        "height": 90
                    },
                    "medium": {
                        "url": "https://i.ytimg.com/vi/nMEMBdQu--4/mqdefault.jpg",
                        "width": 320,
                        "height": 180
                    },
                    "high": {
                        "url": "https://i.ytimg.com/vi/nMEMBdQu--4/hqdefault.jpg",
                        "width": 480,
                        "height": 360
                    }
                },
                "channelTitle": "HUM TV",
                "liveBroadcastContent": "none"
            }
        },
        {
            "kind": "youtube#searchResult",
            "etag": "\"XI7nbFXulYBIpL0ayR_gDh3eu1k/XVFh5MjUhHckJTKoXKJu_svDSEE\"",
            "id": {
                "kind": "youtube#video",
                "videoId": "OhLJz6NCvts"
            },
            "snippet": {
                "publishedAt": "2018-10-29T17:24:03.000Z",
                "channelId": "UCEeEQxm6qc_qaTE7qTV5aLQ",
                "title": "Aatish Episode #11 HUM TV Drama 29 October 2018",
                "description": "Aatish Episode #11 HD Official video - 29 October 2018 at HUM TV official YouTube channel. Subscribe to stay updated with new uploads.",
                "thumbnails": {
                    "default": {
                        "url": "https://i.ytimg.com/vi/OhLJz6NCvts/default.jpg",
                        "width": 120,
                        "height": 90
                    },
                    "medium": {
                        "url": "https://i.ytimg.com/vi/OhLJz6NCvts/mqdefault.jpg",
                        "width": 320,
                        "height": 180
                    },
                    "high": {
                        "url": "https://i.ytimg.com/vi/OhLJz6NCvts/hqdefault.jpg",
                        "width": 480,
                        "height": 360
                    }
                },
                "channelTitle": "HUM TV",
                "liveBroadcastContent": "none"
            }
        },
        {
            "kind": "youtube#searchResult",
            "etag": "\"XI7nbFXulYBIpL0ayR_gDh3eu1k/aEFILwDzriVlMSFhZ73AMSdb2Lw\"",
            "id": {
                "kind": "youtube#video",
                "videoId": "Oo8kp2IVr_0"
            },
            "snippet": {
                "publishedAt": "2018-10-29T16:58:34.000Z",
                "channelId": "UCEeEQxm6qc_qaTE7qTV5aLQ",
                "title": "Bisaat e Dil Episode #02 Promo HUM TV Drama",
                "description": "Bisaat e Dil Episode #02 Promo HD Full Official video - 29 October 2018 at Hum TV official YouTube channel. Subscribe to stay updated with new uploads.",
                "thumbnails": {
                    "default": {
                        "url": "https://i.ytimg.com/vi/Oo8kp2IVr_0/default.jpg",
                        "width": 120,
                        "height": 90
                    },
                    "medium": {
                        "url": "https://i.ytimg.com/vi/Oo8kp2IVr_0/mqdefault.jpg",
                        "width": 320,
                        "height": 180
                    },
                    "high": {
                        "url": "https://i.ytimg.com/vi/Oo8kp2IVr_0/hqdefault.jpg",
                        "width": 480,
                        "height": 360
                    }
                },
                "channelTitle": "HUM TV",
                "liveBroadcastContent": "none"
            }
        },
        {
            "kind": "youtube#searchResult",
            "etag": "\"XI7nbFXulYBIpL0ayR_gDh3eu1k/JThg37e4Dtgu1Y6LHP9aztGs-Ow\"",
            "id": {
                "kind": "youtube#video",
                "videoId": "1ROLNV45PkQ"
            },
            "snippet": {
                "publishedAt": "2018-10-29T16:58:27.000Z",
                "channelId": "UCEeEQxm6qc_qaTE7qTV5aLQ",
                "title": "Bisaat e Dil Episode #01 HUM TV Drama 29 October 2018",
                "description": "Bisaat e Dil Episode #01 HD Full Official video - 29 October 2018 at Hum TV official YouTube channel. Subscribe to stay updated with new uploads.",
                "thumbnails": {
                    "default": {
                        "url": "https://i.ytimg.com/vi/1ROLNV45PkQ/default.jpg",
                        "width": 120,
                        "height": 90
                    },
                    "medium": {
                        "url": "https://i.ytimg.com/vi/1ROLNV45PkQ/mqdefault.jpg",
                        "width": 320,
                        "height": 180
                    },
                    "high": {
                        "url": "https://i.ytimg.com/vi/1ROLNV45PkQ/hqdefault.jpg",
                        "width": 480,
                        "height": 360
                    }
                },
                "channelTitle": "HUM TV",
                "liveBroadcastContent": "none"
            }
        },
        {
            "kind": "youtube#searchResult",
            "etag": "\"XI7nbFXulYBIpL0ayR_gDh3eu1k/x3JKUS9mzNjQKi9hAsiYNXRjtzE\"",
            "id": {
                "kind": "youtube#video",
                "videoId": "XzKKDEGHvP0"
            },
            "snippet": {
                "publishedAt": "2018-10-29T16:41:00.000Z",
                "channelId": "UCEeEQxm6qc_qaTE7qTV5aLQ",
                "title": "Sanwari Episode #46 HUM TV Drama 29 October 2018",
                "description": "Sanwari Episode #46 HD Official video - 29 October 2018 at HUM TV official YouTube channel. Subscribe to stay updated with new uploads.",
                "thumbnails": {
                    "default": {
                        "url": "https://i.ytimg.com/vi/XzKKDEGHvP0/default.jpg",
                        "width": 120,
                        "height": 90
                    },
                    "medium": {
                        "url": "https://i.ytimg.com/vi/XzKKDEGHvP0/mqdefault.jpg",
                        "width": 320,
                        "height": 180
                    },
                    "high": {
                        "url": "https://i.ytimg.com/vi/XzKKDEGHvP0/hqdefault.jpg",
                        "width": 480,
                        "height": 360
                    }
                },
                "channelTitle": "HUM TV",
                "liveBroadcastContent": "none"
            }
        },
        {
            "kind": "youtube#searchResult",
            "etag": "\"XI7nbFXulYBIpL0ayR_gDh3eu1k/BAgIC2SwtiVttvsXuwD7jMjMuRk\"",
            "id": {
                "kind": "youtube#video",
                "videoId": "o3vEO1J8cy8"
            },
            "snippet": {
                "publishedAt": "2018-10-29T16:34:01.000Z",
                "channelId": "UCEeEQxm6qc_qaTE7qTV5aLQ",
                "title": "Aik Larki Aam Si Episode #90 HUM TV Drama 29 October 2018",
                "description": "Aik Larki Aam Si Episode #90 HD Full - 29 October 2018 at Hum TV official YouTube channel. Subscribe to stay updated with new uploads.",
                "thumbnails": {
                    "default": {
                        "url": "https://i.ytimg.com/vi/o3vEO1J8cy8/default.jpg",
                        "width": 120,
                        "height": 90
                    },
                    "medium": {
                        "url": "https://i.ytimg.com/vi/o3vEO1J8cy8/mqdefault.jpg",
                        "width": 320,
                        "height": 180
                    },
                    "high": {
                        "url": "https://i.ytimg.com/vi/o3vEO1J8cy8/hqdefault.jpg",
                        "width": 480,
                        "height": 360
                    }
                },
                "channelTitle": "HUM TV",
                "liveBroadcastContent": "none"
            }
        },
        {
            "kind": "youtube#searchResult",
            "etag": "\"XI7nbFXulYBIpL0ayR_gDh3eu1k/O59WXhRCepETdyzVzF0ikyMbY1k\"",
            "id": {
                "kind": "youtube#playlist",
                "playlistId": "PLbVdwtmx18stjvBYXWh7UfrIxBWpEqSUJ"
            },
            "snippet": {
                "publishedAt": "2018-10-29T15:20:33.000Z",
                "channelId": "UCEeEQxm6qc_qaTE7qTV5aLQ",
                "title": "Bisaat e Dil",
                "description": "",
                "thumbnails": {
                    "default": {
                        "url": "https://i.ytimg.com/vi/1ROLNV45PkQ/default.jpg",
                        "width": 120,
                        "height": 90
                    },
                    "medium": {
                        "url": "https://i.ytimg.com/vi/1ROLNV45PkQ/mqdefault.jpg",
                        "width": 320,
                        "height": 180
                    },
                    "high": {
                        "url": "https://i.ytimg.com/vi/1ROLNV45PkQ/hqdefault.jpg",
                        "width": 480,
                        "height": 360
                    }
                },
                "channelTitle": "HUM TV",
                "liveBroadcastContent": "none"
            }
        },
        {
            "kind": "youtube#searchResult",
            "etag": "\"XI7nbFXulYBIpL0ayR_gDh3eu1k/sj5ZUayttV3fXHjiGotbxlcXWXs\"",
            "id": {
                "kind": "youtube#video",
                "videoId": "O-ZF5PR8voQ"
            },
            "snippet": {
                "publishedAt": "2018-10-28T18:09:14.000Z",
                "channelId": "UCEeEQxm6qc_qaTE7qTV5aLQ",
                "title": "Tajdeed e Wafa Episode #07 Promo HUM TV Drama",
                "description": "Tajdeed e Wafa Episode #07 Promo HD Full Official video - 28 October 2018 at Hum TV official YouTube channel. Subscribe to stay updated with new uploads.",
                "thumbnails": {
                    "default": {
                        "url": "https://i.ytimg.com/vi/O-ZF5PR8voQ/default.jpg",
                        "width": 120,
                        "height": 90
                    },
                    "medium": {
                        "url": "https://i.ytimg.com/vi/O-ZF5PR8voQ/mqdefault.jpg",
                        "width": 320,
                        "height": 180
                    },
                    "high": {
                        "url": "https://i.ytimg.com/vi/O-ZF5PR8voQ/hqdefault.jpg",
                        "width": 480,
                        "height": 360
                    }
                },
                "channelTitle": "HUM TV",
                "liveBroadcastContent": "none"
            }
        },
        {
            "kind": "youtube#searchResult",
            "etag": "\"XI7nbFXulYBIpL0ayR_gDh3eu1k/KRn7gQsLATKZd9FHVqKGclu8-6o\"",
            "id": {
                "kind": "youtube#video",
                "videoId": "jOpGdeKO-1I"
            },
            "snippet": {
                "publishedAt": "2018-10-28T18:08:58.000Z",
                "channelId": "UCEeEQxm6qc_qaTE7qTV5aLQ",
                "title": "Tajdeed e Wafa Episode #06 HUM TV Drama 28 October 2018",
                "description": "Tajdeed e Wafa Episode #06 HD Full Official video - 28 October 2018 at Hum TV official YouTube channel. Subscribe to stay updated with new uploads.",
                "thumbnails": {
                    "default": {
                        "url": "https://i.ytimg.com/vi/jOpGdeKO-1I/default.jpg",
                        "width": 120,
                        "height": 90
                    },
                    "medium": {
                        "url": "https://i.ytimg.com/vi/jOpGdeKO-1I/mqdefault.jpg",
                        "width": 320,
                        "height": 180
                    },
                    "high": {
                        "url": "https://i.ytimg.com/vi/jOpGdeKO-1I/hqdefault.jpg",
                        "width": 480,
                        "height": 360
                    }
                },
                "channelTitle": "HUM TV",
                "liveBroadcastContent": "none"
            }
        },
        {
            "kind": "youtube#searchResult",
            "etag": "\"XI7nbFXulYBIpL0ayR_gDh3eu1k/nf-WhTC56FUBf5n-cp-rb5KozrQ\"",
            "id": {
                "kind": "youtube#video",
                "videoId": "nKbHtYfHptE"
            },
            "snippet": {
                "publishedAt": "2018-10-27T16:19:19.000Z",
                "channelId": "UCEeEQxm6qc_qaTE7qTV5aLQ",
                "title": "Main Khayal Hoon Kisi Aur Ka Episode #17 HUM TV Drama 27 October 2018",
                "description": "Main Khayal Hoon Kisi Aur Ka Episode #17 HD Full Official video - 27 October 2018 at Hum TV official YouTube channel. Subscribe to stay updated with new ...",
                "thumbnails": {
                    "default": {
                        "url": "https://i.ytimg.com/vi/nKbHtYfHptE/default.jpg",
                        "width": 120,
                        "height": 90
                    },
                    "medium": {
                        "url": "https://i.ytimg.com/vi/nKbHtYfHptE/mqdefault.jpg",
                        "width": 320,
                        "height": 180
                    },
                    "high": {
                        "url": "https://i.ytimg.com/vi/nKbHtYfHptE/hqdefault.jpg",
                        "width": 480,
                        "height": 360
                    }
                },
                "channelTitle": "HUM TV",
                "liveBroadcastContent": "none"
            }
        },
        {
            "kind": "youtube#searchResult",
            "etag": "\"XI7nbFXulYBIpL0ayR_gDh3eu1k/lOjeTT_i8HBp56eVcgdanRIjrTU\"",
            "id": {
                "kind": "youtube#video",
                "videoId": "vm6bQv2pVNU"
            },
            "snippet": {
                "publishedAt": "2018-10-27T16:19:15.000Z",
                "channelId": "UCEeEQxm6qc_qaTE7qTV5aLQ",
                "title": "Main Khayal Hoon Kisi Aur Ka Episode #18 Promo HUM TV Drama",
                "description": "Main Khayal Hoon Kisi Aur Ka Episode #18 Promo HD Full Official video - 27 October 2018 at Hum TV official YouTube channel. Subscribe to stay updated with ...",
                "thumbnails": {
                    "default": {
                        "url": "https://i.ytimg.com/vi/vm6bQv2pVNU/default.jpg",
                        "width": 120,
                        "height": 90
                    },
                    "medium": {
                        "url": "https://i.ytimg.com/vi/vm6bQv2pVNU/mqdefault.jpg",
                        "width": 320,
                        "height": 180
                    },
                    "high": {
                        "url": "https://i.ytimg.com/vi/vm6bQv2pVNU/hqdefault.jpg",
                        "width": 480,
                        "height": 360
                    }
                },
                "channelTitle": "HUM TV",
                "liveBroadcastContent": "none"
            }
        },
        {
            "kind": "youtube#searchResult",
            "etag": "\"XI7nbFXulYBIpL0ayR_gDh3eu1k/AeDes0EF9bLpTstSlQuPYioj6r4\"",
            "id": {
                "kind": "youtube#video",
                "videoId": "zy6ay2EgiCM"
            },
            "snippet": {
                "publishedAt": "2018-10-26T17:24:56.000Z",
                "channelId": "UCEeEQxm6qc_qaTE7qTV5aLQ",
                "title": "Band Khirkiyan Episode #14 Promo HUM TV Drama",
                "description": "Band Khirkiyan Episode #14 Promo Full HD - 26 October 2018 at Hum TV official YouTube channel. Subscribe to stay updated with new uploads.",
                "thumbnails": {
                    "default": {
                        "url": "https://i.ytimg.com/vi/zy6ay2EgiCM/default.jpg",
                        "width": 120,
                        "height": 90
                    },
                    "medium": {
                        "url": "https://i.ytimg.com/vi/zy6ay2EgiCM/mqdefault.jpg",
                        "width": 320,
                        "height": 180
                    },
                    "high": {
                        "url": "https://i.ytimg.com/vi/zy6ay2EgiCM/hqdefault.jpg",
                        "width": 480,
                        "height": 360
                    }
                },
                "channelTitle": "HUM TV",
                "liveBroadcastContent": "none"
            }
        },
        {
            "kind": "youtube#searchResult",
            "etag": "\"XI7nbFXulYBIpL0ayR_gDh3eu1k/Ln8CF5In0aftgPH9oH-IzRFsL8Y\"",
            "id": {
                "kind": "youtube#video",
                "videoId": "tdYW7v-5p6o"
            },
            "snippet": {
                "publishedAt": "2018-10-26T17:24:59.000Z",
                "channelId": "UCEeEQxm6qc_qaTE7qTV5aLQ",
                "title": "Band Khirkiyan Episode #13 HUM TV Drama 26 October 2018",
                "description": "Band Khirkiyan Episode #13 Full HD - 26 October 2018 at Hum TV official YouTube channel. Subscribe to stay updated with new uploads. https://goo.gl/o3EPXe ...",
                "thumbnails": {
                    "default": {
                        "url": "https://i.ytimg.com/vi/tdYW7v-5p6o/default.jpg",
                        "width": 120,
                        "height": 90
                    },
                    "medium": {
                        "url": "https://i.ytimg.com/vi/tdYW7v-5p6o/mqdefault.jpg",
                        "width": 320,
                        "height": 180
                    },
                    "high": {
                        "url": "https://i.ytimg.com/vi/tdYW7v-5p6o/hqdefault.jpg",
                        "width": 480,
                        "height": 360
                    }
                },
                "channelTitle": "HUM TV",
                "liveBroadcastContent": "none"
            }
        },
        {
            "kind": "youtube#searchResult",
            "etag": "\"XI7nbFXulYBIpL0ayR_gDh3eu1k/RU5fijDX7PkV-aCQTR6SAaLUWAE\"",
            "id": {
                "kind": "youtube#video",
                "videoId": "zYhcODL0sig"
            },
            "snippet": {
                "publishedAt": "2018-10-26T16:56:51.000Z",
                "channelId": "UCEeEQxm6qc_qaTE7qTV5aLQ",
                "title": "Baandi Episode #06 HUM TV Drama 26 October 2018",
                "description": "Baandi Episode #06 HD Official video - 26 October 2018 at HUM TV official YouTube channel. Subscribe to stay updated with new uploads.",
                "thumbnails": {
                    "default": {
                        "url": "https://i.ytimg.com/vi/zYhcODL0sig/default.jpg",
                        "width": 120,
                        "height": 90
                    },
                    "medium": {
                        "url": "https://i.ytimg.com/vi/zYhcODL0sig/mqdefault.jpg",
                        "width": 320,
                        "height": 180
                    },
                    "high": {
                        "url": "https://i.ytimg.com/vi/zYhcODL0sig/hqdefault.jpg",
                        "width": 480,
                        "height": 360
                    }
                },
                "channelTitle": "HUM TV",
                "liveBroadcastContent": "none"
            }
        },
        {
            "kind": "youtube#searchResult",
            "etag": "\"XI7nbFXulYBIpL0ayR_gDh3eu1k/Z3VnQseornDLHKL6qGKo-qa-H_o\"",
            "id": {
                "kind": "youtube#video",
                "videoId": "6KC_vzH65Ws"
            },
            "snippet": {
                "publishedAt": "2018-10-26T16:56:48.000Z",
                "channelId": "UCEeEQxm6qc_qaTE7qTV5aLQ",
                "title": "Baandi Episode #07 Promo HUM TV Drama",
                "description": "Baandi Episode #07 Promo HD Official video - 26 October 2018 at HUM TV official YouTube channel. Subscribe to stay updated with new uploads.",
                "thumbnails": {
                    "default": {
                        "url": "https://i.ytimg.com/vi/6KC_vzH65Ws/default.jpg",
                        "width": 120,
                        "height": 90
                    },
                    "medium": {
                        "url": "https://i.ytimg.com/vi/6KC_vzH65Ws/mqdefault.jpg",
                        "width": 320,
                        "height": 180
                    },
                    "high": {
                        "url": "https://i.ytimg.com/vi/6KC_vzH65Ws/hqdefault.jpg",
                        "width": 480,
                        "height": 360
                    }
                },
                "channelTitle": "HUM TV",
                "liveBroadcastContent": "none"
            }
        },
        {
            "kind": "youtube#searchResult",
            "etag": "\"XI7nbFXulYBIpL0ayR_gDh3eu1k/F52vFBq8f6d-Lw5nX_GgGwF317w\"",
            "id": {
                "kind": "youtube#video",
                "videoId": "dIXEOTKg-zU"
            },
            "snippet": {
                "publishedAt": "2018-10-26T16:53:56.000Z",
                "channelId": "UCEeEQxm6qc_qaTE7qTV5aLQ",
                "title": "Sanwari Episode #45 HUM TV Drama 26 October 2018",
                "description": "Sanwari Episode #45 HD Official video - 26 October 2018 at HUM TV official YouTube channel. Subscribe to stay updated with new uploads.",
                "thumbnails": {
                    "default": {
                        "url": "https://i.ytimg.com/vi/dIXEOTKg-zU/default.jpg",
                        "width": 120,
                        "height": 90
                    },
                    "medium": {
                        "url": "https://i.ytimg.com/vi/dIXEOTKg-zU/mqdefault.jpg",
                        "width": 320,
                        "height": 180
                    },
                    "high": {
                        "url": "https://i.ytimg.com/vi/dIXEOTKg-zU/hqdefault.jpg",
                        "width": 480,
                        "height": 360
                    }
                },
                "channelTitle": "HUM TV",
                "liveBroadcastContent": "none"
            }
        },
        {
            "kind": "youtube#searchResult",
            "etag": "\"XI7nbFXulYBIpL0ayR_gDh3eu1k/ap_SFBaS0kAAasbfa5vkLAJoJTg\"",
            "id": {
                "kind": "youtube#video",
                "videoId": "sRxjcqahV6c"
            },
            "snippet": {
                "publishedAt": "2018-10-26T16:49:59.000Z",
                "channelId": "UCEeEQxm6qc_qaTE7qTV5aLQ",
                "title": "Aik Larki Aam Si Episode #89 HUM TV Drama 26 October 2018",
                "description": "Aik Larki Aam Si Episode #89 HD Full - 26 October 2018 at Hum TV official YouTube channel. Subscribe to stay updated with new uploads.",
                "thumbnails": {
                    "default": {
                        "url": "https://i.ytimg.com/vi/sRxjcqahV6c/default.jpg",
                        "width": 120,
                        "height": 90
                    },
                    "medium": {
                        "url": "https://i.ytimg.com/vi/sRxjcqahV6c/mqdefault.jpg",
                        "width": 320,
                        "height": 180
                    },
                    "high": {
                        "url": "https://i.ytimg.com/vi/sRxjcqahV6c/hqdefault.jpg",
                        "width": 480,
                        "height": 360
                    }
                },
                "channelTitle": "HUM TV",
                "liveBroadcastContent": "none"
            }
        },
        {
            "kind": "youtube#searchResult",
            "etag": "\"XI7nbFXulYBIpL0ayR_gDh3eu1k/vBEszRpvvccIviw9fj9_1kZptao\"",
            "id": {
                "kind": "youtube#video",
                "videoId": "9iZASDTwqMA"
            },
            "snippet": {
                "publishedAt": "2018-10-26T07:49:33.000Z",
                "channelId": "UCEeEQxm6qc_qaTE7qTV5aLQ",
                "title": "Ranjha Ranjha Kardi | Full OST | HUM TV | Drama",
                "description": "New Drama Serial \"Ranjha Ranjha Kardi\" OST full HD at HUM TV Dramas official YouTube channel. Subscribe to stay updated with new uploads.",
                "thumbnails": {
                    "default": {
                        "url": "https://i.ytimg.com/vi/9iZASDTwqMA/default.jpg",
                        "width": 120,
                        "height": 90
                    },
                    "medium": {
                        "url": "https://i.ytimg.com/vi/9iZASDTwqMA/mqdefault.jpg",
                        "width": 320,
                        "height": 180
                    },
                    "high": {
                        "url": "https://i.ytimg.com/vi/9iZASDTwqMA/hqdefault.jpg",
                        "width": 480,
                        "height": 360
                    }
                },
                "channelTitle": "HUM TV",
                "liveBroadcastContent": "none"
            }
        },
        {
            "kind": "youtube#searchResult",
            "etag": "\"XI7nbFXulYBIpL0ayR_gDh3eu1k/UQ1xGf47SVVdWWJ6nOZ-hlYTmYg\"",
            "id": {
                "kind": "youtube#video",
                "videoId": "EYgh82XUMMM"
            },
            "snippet": {
                "publishedAt": "2018-10-25T17:22:21.000Z",
                "channelId": "UCEeEQxm6qc_qaTE7qTV5aLQ",
                "title": "Ki Jaana Mein Kaun Episode #34 Promo HUM TV Drama",
                "description": "Ki Jaana Mein Kaun Episode #34 Promo Full HD - 25 October 2018 at HUM TV official YouTube channel. Subscribe to stay updated with new uploads.",
                "thumbnails": {
                    "default": {
                        "url": "https://i.ytimg.com/vi/EYgh82XUMMM/default.jpg",
                        "width": 120,
                        "height": 90
                    },
                    "medium": {
                        "url": "https://i.ytimg.com/vi/EYgh82XUMMM/mqdefault.jpg",
                        "width": 320,
                        "height": 180
                    },
                    "high": {
                        "url": "https://i.ytimg.com/vi/EYgh82XUMMM/hqdefault.jpg",
                        "width": 480,
                        "height": 360
                    }
                },
                "channelTitle": "HUM TV",
                "liveBroadcastContent": "none"
            }
        },
        {
            "kind": "youtube#searchResult",
            "etag": "\"XI7nbFXulYBIpL0ayR_gDh3eu1k/dqxiXMl-1ul4U9EIm_YDXdK9o0g\"",
            "id": {
                "kind": "youtube#video",
                "videoId": "EOr-6bglCoQ"
            },
            "snippet": {
                "publishedAt": "2018-10-25T17:22:26.000Z",
                "channelId": "UCEeEQxm6qc_qaTE7qTV5aLQ",
                "title": "Ki Jaana Mein Kaun Episode #33 HUM TV Drama 25 October 2018",
                "description": "Ki Jaana Mein Kaun Episode #33 Full HD - 25 October 2018 at HUM TV official YouTube channel. Subscribe to stay updated with new uploads.",
                "thumbnails": {
                    "default": {
                        "url": "https://i.ytimg.com/vi/EOr-6bglCoQ/default.jpg",
                        "width": 120,
                        "height": 90
                    },
                    "medium": {
                        "url": "https://i.ytimg.com/vi/EOr-6bglCoQ/mqdefault.jpg",
                        "width": 320,
                        "height": 180
                    },
                    "high": {
                        "url": "https://i.ytimg.com/vi/EOr-6bglCoQ/hqdefault.jpg",
                        "width": 480,
                        "height": 360
                    }
                },
                "channelTitle": "HUM TV",
                "liveBroadcastContent": "none"
            }
        }
    ]
}